[
t
é
C
J
Ó
ê
ö
Ç
L
à
5
r
I
ô
í

w
j
S
h
Ô
ó
2
ñ
T
m
6
8
-
Ú
o
b
e
X
É
è
;
*
P
î
)
1
g
9
x
l
R
â
H
u
W
a
$
Â
3
A
B
q
Á
F
'
ü
s
Ã
E
G
V
]
!
?
%
O
ã
0
4
y
.
Y
¤
ª
f
z
ç
º
D
:
(
«
Í
n
U
á
i
M
+
À
v
Q
\
"
õ
ú
_
/
ò
c
&
d
Z
»
N
p
7
K
k
,